{
   "hereva-world-credits": {
      "creation": [
         "David Revoy <https://framagit.org/Deevad>"
      ],
      "lead-maintainer": [
          "Craig Maloney <https://framagit.org/craigmaloney>"
      ],
      "writers": [
         "Craig Maloney <https://framagit.org/craigmaloney>",
         "Nicolas Artance <https://framagit.org/Nartance>",
         "Scribblemaniac",
         "Valvin <https://framagit.org/valvin>"
      ],
      "correctors": [
         "Willem Sonke <https://framagit.org/Willem3141>",
         "Moini",
         "Hali <https://framagit.org/hgabor>",
         "CGand <https://framagit.org/cgand>",
         "Alex Gryson <https://framagit.org/agryson>"
      ]
   }
}
