{
   "ar": "\u062d\u0644\u0642\u0629 \u0662 : \u062c\u0631\u0639\u0629\u064f \u0642\u0648\u0633\u0650 \u0642\u0632\u062d",
   "bn": "\u0997\u09b2\u09cd\u09aa \u09e8: \u09b0\u09be\u09ae\u09a7\u09a8\u09c1\u09b0 \u09af\u09be\u09a6\u09c1\u09ae\u09bf\u09b6\u09cd\u09b0\u09a3",
   "br": "Rann 2: An drammo\u00f9 gwareg-ar-glav",
   "ca": "Episodi 2: Les pocions de l'Arc de Sant Mart\u00ed",
   "cn": "\u7b2c2\u96c6\uff1a\u5f69\u8679\u9b54\u836f",
   "cs": "2. d\u00edl: Duhov\u00e9 lektvary",
   "da": "Episode 2: Regnbueeliksirerne",
   "de": "Episode 2: Regenbogentr\u00e4nke",
   "el": "\u0395\u03c0\u03b5\u03b9\u03c3\u03cc\u03b4\u03b9\u03bf 2: \u03a4\u03b1 \u03c6\u03af\u03bb\u03c4\u03c1\u03b1 \u03c4\u03bf\u03c5 \u03bf\u03c5\u03c1\u03ac\u03bd\u03b9\u03bf\u03c5 \u03c4\u03cc\u03be\u03bf\u03c5",
   "en": "Episode 2: Rainbow Potions",
   "eo": "\u0108apitro 2a : La \u0109ielarkaj Sor\u0109otrinka\u0135oj",
   "es": "Episodio 2: Las pociones arco iris",
   "fa": "\u0642\u0633\u0645\u062a \u062f\u0648\u0645: \u0645\u0639\u062c\u0648\u0646 \u0647\u0627\u06cc \u0631\u0646\u06af\u06cc\u0646 \u06a9\u0645\u0627\u0646",
   "fi": "Episodi 2: Sateenkaariseokset",
   "fr": "\u00c9pisode 2 : Les potions arc-en-ciel",
   "gd": "Eapasod 2: Deochan bogha-froise",
   "go": "Eqerouey 2 : Lez pocions arc-en-cieu",
   "hi": "\u0905\u0927\u094d\u092f\u093e\u092f \u0968: \u0907\u0902\u0926\u094d\u0930\u0927\u0928\u0941\u0937\u0940 \u0915\u093e\u0922\u0947",
   "hu": "2. r\u00e9sz: Sziv\u00e1rv\u00e1ny f\u0151zetek",
   "id": "Episode 2: Ramuan pelangi",
   "ie": "Episode 2: Pluricolor Potiones",
   "it": "Episodio 2: Pozioni arcobaleno",
   "ja": "\u30a8\u30d4\u30bd\u30fc\u30c9 2: \u8679\u306e\u85ac",
   "jb": "i 2 mo'o lisri le litki pe ja'e lo tanbargu",
   "kr": "\uc81c2 \ud654: \ubb34\uc9c0\uac1c \ubb3c\uc57d",
   "kt": "Zixa 2 : Korfiulibeem",
   "kw": "Rann 2: Ismegennow Kammneves",
   "la": "Episodium 2 : Potiones multicolores",
   "ml": "\u0d0e\u0d2a\u0d4d\u0d2a\u0d3f\u0d38\u0d4b\u0d21\u0d4d 2: \u0d2e\u0d34\u0d35\u0d3f\u0d32\u0d4d\u200d \u0d24\u0d48\u0d32\u0d02",
   "ms": "Episod 2 : Posyen pelangi",
   "mx": "Episodio 2 : Pociones de Arco\u00edris",
   "nl": "Aflevering 2: Regenboogdrankjes",
   "nm": "Histou\u00e8re 2: P\u00e8tiouns d\u00e9 mile couleus",
   "nn": "Episode 2: Regnbogetrylledrikkar",
   "no": "Episode 2: Regnbuetrylledrikker",
   "ns": "Folg 2: De kakelbunten T\u00f6verdrunks",
   "ph": "Episode 2 : Rainbow potions",
   "pl": "Odcinek 2: T\u0119czowe eliksiry",
   "pt": "Epis\u00f3dio 2: Po\u00e7\u00f5es Arco-\u00edris",
   "ro": "Episodul 2 : Po\u0163iuni Curcubeu",
   "ru": "\u042d\u043f\u0438\u0437\u043e\u0434 2: \u0420\u0430\u0434\u0443\u0436\u043d\u044b\u0435 \u0437\u0435\u043b\u044c\u044f",
   "sb": "Episode 2: Ia Deuspontpotions",
   "si": "2\u0dc0\u0db1 \u0d9a\u0dad\u0dcf\u0d82\u0d9c\u0dba: \u0daf\u0dda\u0daf\u0dd4\u0db1\u0dd4 \u0db8\u0dcf\u0dba\u0dcf \u0dc0\u0da9\u0dd2",
   "sk": "Epiz\u00f3da 2: D\u00fahov\u00e9 elix\u00edry",
   "sl": "Epizoda 2: Mavri\u010dni napoji",
   "sr": "\u0415\u043f\u0438\u0437\u043e\u0434\u0430 2: \u0414\u0443\u0433\u0438\u043d\u0438 \u043d\u0430\u043f\u0438\u0446\u0438",
   "sv": "Episode 2: Regnb\u00e5gselixir",
   "sz": "Tajla 2: Dyngowe Mikstury",
   "tp": "lipu nanpa tu: telo pi kule mute",
   "tr": "2. B\u00f6l\u00fcm : G\u00f6kku\u015fa\u011f\u0131 b\u00fcy\u00fcleri",
   "uk": "\u0415\u043f\u0456\u0437\u043e\u0434 2: \u0412\u0435\u0441\u0435\u043b\u043a\u043e\u0432\u0456 \u0437\u0456\u043b\u043b\u044f",
   "vi": "T\u1eadp 2: Thu\u1ed1c c\u1ea7u v\u1ed3ng"
}